// Jest Snapshot v1, https://goo.gl/fbAQLP

exports[`CommentEdit is a Vue instance 1`] = `
<div
  class="card"
>
  <div
    class="card-header"
  >
    <a
      class="card-footer-item btn-save"
      disabled="disabled"
    >
      保存
    </a>
    <a
      class="card-footer-item btn-cancel"
    >
      キャンセル
    </a>
  </div>
  <div
    class="card-content"
  >
    <div
      class="content"
    >
      <span>
        <div
          class="field e2e-comment"
        >
          <!---->
           
          <div
            class="control is-small is-clearfix is-small"
          >
            <textarea
              class="textarea is-small"
              name="comment"
              placeholder=""
            />
             
            <!---->
             
            <!---->
             
            <!---->
          </div>
          <!---->
           
          <!---->
        </div>
      </span>
    </div>
  </div>
</div>
`;
